INDEX VERSION 1.126+/Users/student/Desktop/DL_WORKSPACE/Assignment 1/.metadata/.plugins/org.eclipse.jdt.core
272178059.index
1412680892.index
156905802.index
3004609673.index
1271342938.index
3954040986.index
3266567714.index
2326659272.index
2545238116.index
84777399.index
4238209716.index
765977872.index
3302703152.index
1819685514.index
3321539481.index
1833648217.index
1384487945.index
3712507179.index
450555687.index
4249315662.index
822514700.index
3000285004.index
770573466.index
