INDEX VERSION 1.126+/media/yash/storage/programming/yash101/repos/ap-computer-science/Assignment V/.metadata/.plugins/org.eclipse.jdt.core
989528713.index
3900037835.index
3628237268.index
460152253.index
2864293982.index
2598035366.index
392775124.index
3542660237.index
2259717368.index
1259291233.index
3938652823.index
1398671525.index
1513993030.index
2426646370.index
2307328643.index
2422600702.index
